375 = "Ixikkaz"
377 = "Akaz Lokkex"
364 = "Xavvik"
444 = "Akaz Voltur"
443 = "Akaz Zorek"
447 = "Ruins of Corveld"
401 = "Biagrix"
395 = "Sriwix"
396 = "Xarrar Obix"
398 = "Xarraran Wukograr"
6513 = "Hogzhaad"