#30 - Viborg | 

owner = A88
controller = A88
add_core = A88
culture = west_damerian
religion = regent_court

hre = yes

base_tax = 5
base_production = 4
base_manpower = 4

trade_goods = grain
capital = ""

is_city = yes







