#306 - Nizhny Novgorod | Wexkeep

owner = A30
controller = A30
add_core = A30
culture = wexonard
religion = regent_court

hre = yes

base_tax = 4
base_production = 4
base_manpower = 6

trade_goods = iron

capital = ""

is_city = yes
fort_15th = yes







add_permanent_province_modifier = {
	name = castanorian_citadel
	duration = -1
}